<svg width="9" height="15" viewBox="0 0 9 15" fill="none" xmlns="http://www.w3.org/2000/svg">
<path fill-rule="evenodd" clip-rule="evenodd" d="M7.54289 0.542847L8.95711 1.95706L3.16421 7.74995L8.95711 13.5428L7.54289 14.9571L0.335787 7.74995L7.54289 0.542847Z" fill="#31303E"/>
</svg>
