<svg width="136" height="44" viewBox="0 0 136 44" fill="none" xmlns="http://www.w3.org/2000/svg">
<g clip-path="url(#clip0)">
<path d="M56.3053 14.0652L60.7202 9.08293H58.1123L54.3135 13.4091V9.08293H52.0752V19.7446H54.3135V14.9059L58.2766 19.7446H60.9256L56.3053 14.0652Z" fill="#742129"/>
<path d="M67.2912 8.42683L61.8906 19.7446H64.3548L65.4636 17.3458H69.1188L70.2276 19.7446H72.7123L67.2912 8.42683ZM68.6259 15.5825H65.9975L67.3117 12.548L68.6259 15.5825Z" fill="#742129"/>
<path d="M83.3287 19.7446V9.08293H74.2524V19.7446H76.4907V11.0512H81.0904V19.7446H83.3287Z" fill="#742129"/>
<path d="M93.2882 19.7446H95.4032V8.54985L87.8465 15.5415V9.08294H85.7109V20.2777L93.2882 13.2861V19.7446Z" fill="#742129"/>
<path d="M100.126 19.7446H102.323V11.0512H105.198V9.08293H97.272V11.0512H100.126V19.7446Z" fill="#742129"/>
<path d="M106.862 19.7446L107.97 17.3458H111.626L112.734 19.7446H115.219L109.778 8.44734L104.397 19.7446H106.862ZM111.112 15.5825H108.484L109.798 12.548L111.112 15.5825Z" fill="#742129"/>
<path d="M118.894 15.0699H123.884V19.7446H126.061V9.08293H123.884V13.0606H118.894V9.08293H116.718V19.7446H118.894V15.0699Z" fill="#742129"/>
<path d="M55.9974 24.6654L51.7262 33.9534H50.104V37.5415H52.2601V35.8602H59.7552V37.5415H61.8908V33.9534H60.2686L55.9974 24.6654ZM55.9974 28.8071L57.9071 33.9534H54.0877L55.9974 28.8071Z" fill="#742129"/>
<path d="M72.3221 26.5517C71.8088 26.0596 71.2132 25.6701 70.5356 25.4035C69.858 25.137 69.0982 24.9935 68.2973 24.9935C67.4965 24.9935 66.7573 25.137 66.0591 25.4035C65.3815 25.6701 64.7654 26.0596 64.2726 26.5517C63.7592 27.0438 63.3691 27.6384 63.0816 28.2945C62.7941 28.9711 62.6709 29.7092 62.6709 30.5293C62.6709 31.329 62.8146 32.0671 63.0816 32.7642C63.3485 33.4408 63.7387 34.0354 64.2521 34.548C64.7654 35.0606 65.3609 35.4501 66.0386 35.7167C66.7162 36.0037 67.476 36.1267 68.2973 36.1267C69.1187 36.1267 69.8785 35.9832 70.5561 35.7167C71.2338 35.4296 71.8293 35.0401 72.3426 34.548C72.856 34.0354 73.2462 33.4408 73.5131 32.7642C73.8006 32.0671 73.9238 31.329 73.9238 30.5499C73.9238 29.7297 73.7801 28.9916 73.5131 28.315C73.2462 27.6384 72.8355 27.0438 72.3221 26.5517ZM71.3775 31.9441C71.2132 32.3746 70.9874 32.7437 70.6999 33.0512C70.4124 33.3588 70.0633 33.6048 69.6526 33.7894C69.2419 33.9534 68.7902 34.0559 68.3179 34.0559C67.8456 34.0559 67.3733 33.9739 66.9831 33.7894C66.5725 33.6253 66.2234 33.3793 65.9359 33.0512C65.6484 32.7437 65.402 32.3541 65.2582 31.9236C65.094 31.493 65.0118 31.0214 65.0118 30.5293C65.0118 30.0168 65.094 29.5452 65.2582 29.1351C65.4225 28.7046 65.6484 28.3355 65.9359 28.0279C66.2234 27.7204 66.5725 27.4744 66.9831 27.2898C67.3938 27.1258 67.8456 27.0233 68.3384 27.0233C68.8312 27.0233 69.283 27.1053 69.6937 27.2898C70.1044 27.4539 70.4535 27.6999 70.741 28.0279C71.0284 28.3355 71.2543 28.7251 71.4186 29.1556C71.5623 29.5862 71.6445 30.0578 71.6445 30.5499C71.6239 31.0419 71.5418 31.5135 71.3775 31.9441Z" fill="#742129"/>
<path d="M81.0289 24.9935C80.2075 24.9935 79.4477 25.137 78.7495 25.4035C78.0514 25.6701 77.4559 26.0596 76.9425 26.5312C76.4292 27.0233 76.039 27.5974 75.7515 28.274C75.464 28.9506 75.3408 29.7092 75.3408 30.5293C75.3408 31.3495 75.4846 32.1081 75.7515 32.7847C76.039 33.4613 76.4292 34.0559 76.9425 34.5275C77.4559 35.0196 78.0514 35.3886 78.7495 35.6552C79.4477 35.9217 80.2075 36.0652 81.0289 36.0652C81.8092 36.0652 82.4663 35.9627 82.9591 35.7782C83.4725 35.5936 83.9448 35.3271 84.376 34.9786V32.5182C84.1501 32.7847 83.8626 33.0307 83.5546 33.2563C83.2466 33.4818 82.877 33.6458 82.4868 33.7894C82.0967 33.9329 81.6244 33.9944 81.111 33.9944C80.6593 33.9944 80.228 33.9124 79.7968 33.7484C79.3861 33.5843 79.0165 33.3588 78.7085 33.0718C78.4005 32.7642 78.1335 32.4156 77.9692 31.9851C77.7844 31.5545 77.7023 31.0829 77.7023 30.5498C77.7023 30.0168 77.7844 29.5452 77.9692 29.1146C78.1541 28.6841 78.4005 28.315 78.7085 28.0279C79.0165 27.7204 79.3861 27.4949 79.7968 27.3513C80.2075 27.1873 80.6387 27.1053 81.111 27.1053C81.6244 27.1053 82.0761 27.1668 82.4868 27.2898C82.8975 27.4129 83.2466 27.5974 83.5546 27.8229C83.8626 28.0485 84.1501 28.2945 84.376 28.561V26.1006C83.9448 25.7521 83.4725 25.465 82.9591 25.2805C82.4663 25.0755 81.8092 24.9935 81.0289 24.9935Z" fill="#742129"/>
<path d="M93.8833 25.1985H85.957V27.1873H88.7908V35.8807H91.0085V27.1873H93.8833V25.1985Z" fill="#742129"/>
<path d="M93.6782 35.8807H96.1424L97.2512 33.4818H100.906L102.015 35.8807H104.5L99.0582 24.5834L93.6782 35.8807ZM100.414 31.7185H97.7851L99.0993 28.6841L100.414 31.7185Z" fill="#742129"/>
<path d="M112.549 30.5704C112.241 30.3858 111.913 30.2423 111.564 30.1193C112.036 29.9142 112.426 29.6477 112.714 29.2991C113.022 28.9096 113.186 28.4585 113.186 27.9049C113.186 27.4539 113.104 27.0438 112.919 26.7157C112.734 26.3877 112.488 26.1006 112.18 25.8751C111.851 25.6496 111.482 25.4855 111.05 25.3625C110.619 25.26 110.126 25.1985 109.593 25.1985H106.04V35.8602H109.818C110.619 35.8602 111.317 35.7577 111.913 35.5321C112.508 35.3271 112.981 34.9785 113.309 34.5275C113.638 34.0764 113.823 33.5023 113.823 32.8052C113.823 32.2721 113.72 31.821 113.494 31.452C113.227 31.1034 112.919 30.7959 112.549 30.5704ZM109.367 26.9413C109.839 26.9413 110.229 27.0438 110.496 27.2693C110.763 27.4949 110.907 27.8024 110.907 28.192C110.907 28.4585 110.845 28.6841 110.722 28.8686C110.599 29.0531 110.414 29.2171 110.188 29.3197C109.962 29.4222 109.695 29.4632 109.367 29.4632H108.196V26.9413H109.367ZM111.256 33.4408C111.092 33.6663 110.866 33.8509 110.578 33.9534C110.291 34.0559 109.962 34.1174 109.593 34.1174H108.196V31.0419H109.593C109.859 31.0419 110.126 31.0624 110.352 31.1239C110.578 31.1854 110.784 31.2675 110.968 31.3905C111.133 31.5135 111.276 31.657 111.379 31.8416C111.482 32.0261 111.523 32.2516 111.523 32.5182C111.502 32.9077 111.42 33.2153 111.256 33.4408Z" fill="#742129"/>
<path d="M124.295 25.1985H121.687L117.888 29.5247V25.1985H115.65V35.8807H117.888V31.0419L121.851 35.8807H124.521L119.88 30.2013L124.295 25.1985Z" fill="#742129"/>
<path d="M133.515 35.8807H136L130.558 24.5834L125.158 35.8807H127.622L128.731 33.4818H132.386L133.515 35.8807ZM131.893 31.7185H129.265L130.579 28.6841L131.893 31.7185Z" fill="#742129"/>
<path d="M36.2022 5.43337L19.9594 2.27587C19.8156 2.25537 19.6924 2.23486 19.5487 2.23486C19.405 2.23486 19.2612 2.25537 19.138 2.27587L2.93629 5.43337C2.5256 5.51539 2.23812 5.86394 2.23812 6.27401C2.19705 9.24698 2.29973 16.9767 3.88088 24.3989C5.66738 32.7847 17.023 40.0634 19.5487 41.5806C22.0744 40.0634 33.4711 32.7642 35.2576 24.3989C36.8387 16.9767 36.9414 9.24698 36.9003 6.27401C36.9209 5.86394 36.6129 5.51539 36.2022 5.43337Z" fill="url(#paint0_linear)"/>
<path d="M36.2022 5.43337L19.9594 2.27587C19.8156 2.25537 19.6924 2.23486 19.5487 2.23486C19.405 2.23486 19.2612 2.25537 19.138 2.27587L2.93629 5.43337C2.5256 5.51539 2.23812 5.86394 2.23812 6.27401C2.19705 9.24698 2.29973 16.9767 3.88088 24.3989C5.66738 32.7847 17.023 40.0634 19.5487 41.5806C22.0744 40.0634 33.4711 32.7642 35.2576 24.3989C36.8387 16.9767 36.9414 9.24698 36.9003 6.27401C36.9209 5.86394 36.6129 5.51539 36.2022 5.43337Z" fill="url(#paint1_linear)"/>
<path d="M19.5488 1.41473L19.5694 42.4623C19.5694 42.4623 34.5185 33.6254 35.7095 26.6542C36.9005 19.6831 37.6603 5.35136 37.6603 5.35136L19.5488 1.41473Z" fill="url(#paint2_linear)"/>
<path d="M36.2022 5.43337L19.9594 2.27587C19.8156 2.25537 19.6924 2.23486 19.5487 2.23486C19.405 2.23486 19.2612 2.25537 19.138 2.27587L2.93629 5.43337C2.5256 5.51539 2.23812 5.86394 2.23812 6.27401C2.19705 9.24698 2.29973 16.9767 3.88088 24.3989C5.66738 32.7847 17.023 40.0634 19.5487 41.5806C22.0744 40.0634 33.4711 32.7642 35.2576 24.3989C36.8387 16.9767 36.9414 9.24698 36.9003 6.27401C36.9209 5.86394 36.6129 5.51539 36.2022 5.43337ZM34.7237 24.3374C32.9988 32.4362 21.9923 39.4688 19.5487 40.945C17.1051 39.4688 6.13968 32.4362 4.41478 24.3374C2.89523 17.1612 2.79255 9.69805 2.81309 6.82759C2.81309 6.43803 3.10057 6.08948 3.49073 6.00746L19.138 2.95248C19.2612 2.93197 19.405 2.91147 19.5487 2.91147C19.6924 2.91147 19.8156 2.93197 19.9594 2.95248L35.6477 6.00746C36.0379 6.08948 36.3254 6.41753 36.3254 6.82759C36.3459 9.69805 36.2638 17.1612 34.7237 24.3374Z" fill="url(#paint3_linear)"/>
<path d="M39.1591 6.25362C39.1385 4.79789 38.0913 3.52668 36.6333 3.23964L20.3905 0.0821363C19.8361 -0.0203801 19.2611 -0.0203801 18.7067 0.0821363L2.50499 3.23964C1.06758 3.52668 -0.000216653 4.77738 -0.000216653 6.25362C-0.0412857 9.3086 0.0613869 17.2434 1.70415 24.8706C2.64873 29.2583 5.85212 33.7895 11.2322 38.3412C13.3061 40.1045 15.298 41.4987 16.5917 42.3599C18.871 43.8771 19.2406 44.0001 19.5281 44.0001C19.5486 44.0001 19.5692 44.0001 19.5897 44.0001C19.8772 44.0001 20.2468 43.8771 22.5261 42.3599C23.8403 41.4987 25.8322 40.1045 27.9062 38.3412C33.3067 33.7895 36.5307 29.2378 37.4547 24.8706C39.0975 17.2434 39.1796 9.3086 39.1591 6.25362ZM35.2575 24.4195C33.471 32.8053 22.0744 40.084 19.5486 41.6012C17.0229 40.084 5.6673 32.7848 3.8808 24.4195C2.29965 16.9973 2.19697 9.2676 2.23804 6.29462C2.23804 5.88456 2.54606 5.536 2.93622 5.45399L19.1379 2.29649C19.2817 2.27599 19.4049 2.25548 19.5486 2.25548C19.6924 2.25548 19.8156 2.27599 19.9593 2.29649L36.2021 5.43349C36.6128 5.5155 36.9003 5.86406 36.9003 6.27412C36.9413 9.2676 36.8592 16.9973 35.2575 24.4195Z" fill="url(#paint4_linear)"/>
<path d="M19.5489 41.6011C22.0746 40.0839 33.4302 32.7847 35.2167 24.4194C36.7978 16.9972 36.9005 9.26747 36.8595 6.2945C36.8595 5.88444 36.5514 5.53588 36.1613 5.45387L19.9595 2.29637C19.8158 2.27586 19.6926 2.25536 19.5489 2.25536V0C19.8363 0 20.1033 0.0205033 20.3908 0.082013L36.5925 3.23952C38.0299 3.52656 39.0977 4.77726 39.0977 6.25349C39.1388 9.30848 39.0361 17.2432 37.3934 24.8705C36.4488 29.2582 33.2454 33.7894 27.8653 38.3411C25.7913 40.1044 23.7995 41.4986 22.5058 42.3597C20.2265 43.877 19.8569 44 19.5694 44C19.5489 44 19.5489 44 19.5283 44L19.5489 41.6011Z" fill="url(#paint5_linear)"/>
<path fill-rule="evenodd" clip-rule="evenodd" d="M12.0742 30.3448C12.2796 29.8938 12.7929 29.4017 13.6964 29.1556C14.2509 28.9916 14.8464 28.8276 15.4419 28.6226C15.4624 28.4585 15.4829 28.2945 15.5035 28.1305C14.9696 28.2945 14.4562 28.4585 13.9839 28.5815C12.8751 28.8891 12.259 29.7297 12.0742 30.3448Z" fill="url(#paint6_linear)"/>
<path fill-rule="evenodd" clip-rule="evenodd" d="M19.6718 13.6142C19.6718 13.6347 19.6718 13.6347 19.6718 13.6142C19.487 13.6757 19.2406 13.7372 18.9531 13.8397C18.1523 14.1062 16.8381 14.7213 16.4274 14.9264C13.6758 16.3206 12.608 17.6738 10.9036 17.5918C10.7393 17.5918 10.3286 17.5508 9.93848 17.4483C10.3697 17.6328 11.1089 17.7353 11.3554 17.7353C12.9776 17.7968 13.9632 16.5461 16.5506 15.2339C16.9407 15.0494 18.1728 14.4548 18.9326 14.2088C19.1995 14.1267 19.4254 14.0447 19.5897 14.0037C22.5056 13.1016 26.8794 13.7987 26.6536 17.9814C26.4071 22.7586 22.0538 25.6086 17.8237 27.2898C17.7827 27.4539 17.7416 27.6384 17.7005 27.8024C22.2181 26.0186 26.9205 22.9842 27.1875 17.8583C27.4339 13.4091 22.7725 12.6505 19.6718 13.6142Z" fill="url(#paint7_linear)"/>
<path fill-rule="evenodd" clip-rule="evenodd" d="M19.8978 10.4156C19.9799 9.00092 20.0004 7.95526 19.9388 7.54519C19.8567 6.9916 18.6657 7.03261 17.3515 7.64771C16.2632 8.16029 16.3658 9.20596 16.3658 9.53401C16.3864 10.0056 16.4069 10.7232 16.4069 11.5433C13.2651 13.0196 10.534 15.3979 9.42517 16.5256C9.21982 16.7512 9.01448 17.0587 9.21982 17.2022C9.60998 17.4688 10.5956 17.5918 10.8831 17.5918C12.608 17.6533 13.6758 16.3206 16.4069 14.9264C16.8381 14.7213 18.1318 14.1062 18.9326 13.8397C19.2201 13.7372 19.446 13.6757 19.6514 13.6142C22.7521 12.6505 27.4134 13.4091 27.167 17.8378C26.9 22.9636 22.1976 25.9981 17.68 27.7819C18.0907 26.0596 18.4809 24.0093 18.7889 21.754C19.0969 19.3346 19.3844 16.6486 19.5897 14.2498C18.3782 14.3728 17.331 15.2134 16.4069 15.9925C16.3864 18.0224 16.3042 20.1752 16.1194 22.041C15.9346 24.0093 15.6882 26.3262 15.4212 28.5815C14.8052 28.7866 14.2302 28.9506 13.6758 29.1146C11.7866 29.6477 11.6429 31.2675 12.2589 31.165C13.2651 31.0009 14.2508 30.7959 15.1748 30.5909C15.1338 30.8574 15.0927 31.1239 15.0722 31.3905C14.99 32.0261 14.7436 33.2563 15.5444 33.1948C16.0373 33.1333 16.3658 32.7232 16.5506 32.1081C16.6944 31.616 16.8997 30.9394 17.1256 30.0988C21.3557 28.9711 24.6618 27.3513 27.3723 24.932C33.0399 19.9292 33.9639 7.79123 19.8978 10.4156Z" fill="url(#paint8_linear)"/>
</g>
<defs>
<linearGradient id="paint0_linear" x1="19.5758" y1="2.23486" x2="19.5758" y2="41.5806" gradientUnits="userSpaceOnUse">
<stop stop-color="#993443"/>
<stop offset="1" stop-color="#5B0D18"/>
</linearGradient>
<linearGradient id="paint1_linear" x1="19.5758" y1="2.23486" x2="19.5758" y2="41.5806" gradientUnits="userSpaceOnUse">
<stop stop-color="#993443"/>
<stop offset="1" stop-color="#5B0D18"/>
</linearGradient>
<linearGradient id="paint2_linear" x1="28.6112" y1="1.41473" x2="28.6112" y2="42.4622" gradientUnits="userSpaceOnUse">
<stop stop-color="#932E33"/>
<stop offset="0.4888" stop-color="#7A1F26"/>
<stop offset="1" stop-color="#611017"/>
</linearGradient>
<linearGradient id="paint3_linear" x1="19.5758" y1="41.5806" x2="19.5758" y2="2.23486" gradientUnits="userSpaceOnUse">
<stop stop-color="#FFDF5A"/>
<stop offset="0.5263" stop-color="#FDD041"/>
<stop offset="1" stop-color="#D37F0F"/>
</linearGradient>
<linearGradient id="paint4_linear" x1="19.5839" y1="0.00524902" x2="19.5839" y2="44.0001" gradientUnits="userSpaceOnUse">
<stop stop-color="#FFDF5A"/>
<stop offset="0.5263" stop-color="#FDD041"/>
<stop offset="1" stop-color="#D37F0F"/>
</linearGradient>
<linearGradient id="paint5_linear" x1="29.323" y1="0" x2="29.323" y2="44" gradientUnits="userSpaceOnUse">
<stop stop-color="#FBC744"/>
<stop offset="0.4888" stop-color="#F9BB32"/>
<stop offset="1" stop-color="#D1740D"/>
</linearGradient>
<linearGradient id="paint6_linear" x1="13.7955" y1="30.3368" x2="13.7955" y2="28.1247" gradientUnits="userSpaceOnUse">
<stop stop-color="#FFDF5A"/>
<stop offset="0.5263" stop-color="#FDD041"/>
<stop offset="1" stop-color="#D37F0F"/>
</linearGradient>
<linearGradient id="paint7_linear" x1="18.5743" y1="27.8024" x2="18.5743" y2="13.245" gradientUnits="userSpaceOnUse">
<stop stop-color="#FFDF5A"/>
<stop offset="0.5263" stop-color="#FDD041"/>
<stop offset="1" stop-color="#D37F0F"/>
</linearGradient>
<linearGradient id="paint8_linear" x1="20.1966" y1="7.15655" x2="20.1966" y2="33.2417" gradientUnits="userSpaceOnUse">
<stop stop-color="#FFDF5A"/>
<stop offset="0.5263" stop-color="#FDD041"/>
<stop offset="1" stop-color="#D37F0F"/>
</linearGradient>
<clipPath id="clip0">
<rect width="136" height="44" fill="white"/>
</clipPath>
</defs>
</svg>
